[
    {
        "name": "Hoodie",
        "frontImage": "/assets/hoodie_front.png",
        "backImage": "/assets/hoodie_back.png"
    },
    {
        "name": "T-shirt",
        "frontImage": "/assets/t_shirt_front.png",
        "backImage": "/assets/t_shirt_back.png"
    }
]